{
  "formatVersion": 1,
  "database": {
    "version": 3,
    "identityHash": "f23be2f0533a45e90810414a58907913",
    "entities": [
      {
        "tableName": "sitio_table",
        "createSql": "CREATE TABLE IF NOT EXISTS `${TABLE_NAME}` (`id` INTEGER NOT NULL, `nombre` TEXT, `descripcion` TEXT, `horario_apertura` TEXT, `horario_cierre` TEXT, `latitud` REAL NOT NULL, `longitud` REAL NOT NULL, `favorito` INTEGER, PRIMARY KEY(`id`))",
        "fields": [
          {
            "fieldPath": "id",
            "columnName": "id",
            "affinity": "INTEGER",
            "notNull": true
          },
          {
            "fieldPath": "nombre",
            "columnName": "nombre",
            "affinity": "TEXT",
            "notNull": false
          },
          {
            "fieldPath": "descripcion",
            "columnName": "descripcion",
            "affinity": "TEXT",
            "notNull": false
          },
          {
            "fieldPath": "horarioApertura",
            "columnName": "horario_apertura",
            "affinity": "TEXT",
            "notNull": false
          },
          {
            "fieldPath": "horarioCierre",
            "columnName": "horario_cierre",
            "affinity": "TEXT",
            "notNull": false
          },
          {
            "fieldPath": "latitud",
            "columnName": "latitud",
            "affinity": "REAL",
            "notNull": true
          },
          {
            "fieldPath": "longitud",
            "columnName": "longitud",
            "affinity": "REAL",
            "notNull": true
          },
          {
            "fieldPath": "favorito",
            "columnName": "favorito",
            "affinity": "INTEGER",
            "notNull": false
          }
        ],
        "primaryKey": {
          "columnNames": [
            "id"
          ],
          "autoGenerate": false
        },
        "indices": [
          {
            "name": "index_sitio_table_id",
            "unique": false,
            "columnNames": [
              "id"
            ],
            "createSql": "CREATE INDEX IF NOT EXISTS `index_sitio_table_id` ON `${TABLE_NAME}` (`id`)"
          }
        ],
        "foreignKeys": []
      },
      {
        "tableName": "categoria_table",
        "createSql": "CREATE TABLE IF NOT EXISTS `${TABLE_NAME}` (`id` INTEGER NOT NULL, `nombre` TEXT, PRIMARY KEY(`id`))",
        "fields": [
          {
            "fieldPath": "id",
            "columnName": "id",
            "affinity": "INTEGER",
            "notNull": true
          },
          {
            "fieldPath": "nombre",
            "columnName": "nombre",
            "affinity": "TEXT",
            "notNull": false
          }
        ],
        "primaryKey": {
          "columnNames": [
            "id"
          ],
          "autoGenerate": false
        },
        "indices": [
          {
            "name": "index_categoria_table_id",
            "unique": false,
            "columnNames": [
              "id"
            ],
            "createSql": "CREATE INDEX IF NOT EXISTS `index_categoria_table_id` ON `${TABLE_NAME}` (`id`)"
          }
        ],
        "foreignKeys": []
      },
      {
        "tableName": "sitio_join_categorias",
        "createSql": "CREATE TABLE IF NOT EXISTS `${TABLE_NAME}` (`sitio_id` INTEGER NOT NULL, `categoria_id` INTEGER NOT NULL, PRIMARY KEY(`sitio_id`, `categoria_id`), FOREIGN KEY(`sitio_id`) REFERENCES `sitio_table`(`id`) ON UPDATE NO ACTION ON DELETE NO ACTION , FOREIGN KEY(`categoria_id`) REFERENCES `categoria_table`(`id`) ON UPDATE NO ACTION ON DELETE NO ACTION )",
        "fields": [
          {
            "fieldPath": "sitio_id",
            "columnName": "sitio_id",
            "affinity": "INTEGER",
            "notNull": true
          },
          {
            "fieldPath": "categoria_id",
            "columnName": "categoria_id",
            "affinity": "INTEGER",
            "notNull": true
          }
        ],
        "primaryKey": {
          "columnNames": [
            "sitio_id",
            "categoria_id"
          ],
          "autoGenerate": false
        },
        "indices": [],
        "foreignKeys": [
          {
            "table": "sitio_table",
            "onDelete": "NO ACTION",
            "onUpdate": "NO ACTION",
            "columns": [
              "sitio_id"
            ],
            "referencedColumns": [
              "id"
            ]
          },
          {
            "table": "categoria_table",
            "onDelete": "NO ACTION",
            "onUpdate": "NO ACTION",
            "columns": [
              "categoria_id"
            ],
            "referencedColumns": [
              "id"
            ]
          }
        ]
      }
    ],
    "views": [],
    "setupQueries": [
      "CREATE TABLE IF NOT EXISTS room_master_table (id INTEGER PRIMARY KEY,identity_hash TEXT)",
      "INSERT OR REPLACE INTO room_master_table (id,identity_hash) VALUES(42, 'f23be2f0533a45e90810414a58907913')"
    ]
  }
}