{
  "formatVersion": 1,
  "database": {
    "version": 4,
    "identityHash": "85890e95d5597804e2939124eaa1c94b",
    "entities": [
      {
        "tableName": "sitio_table",
        "createSql": "CREATE TABLE IF NOT EXISTS `${TABLE_NAME}` (`id` INTEGER NOT NULL, `nombre` TEXT, `descripcion` TEXT, `horario_apertura` TEXT, `horario_cierre` TEXT, `latitud` REAL NOT NULL, `longitud` REAL NOT NULL, `favorito` INTEGER, PRIMARY KEY(`id`))",
        "fields": [
          {
            "fieldPath": "id",
            "columnName": "id",
            "affinity": "INTEGER",
            "notNull": true
          },
          {
            "fieldPath": "nombre",
            "columnName": "nombre",
            "affinity": "TEXT",
            "notNull": false
          },
          {
            "fieldPath": "descripcion",
            "columnName": "descripcion",
            "affinity": "TEXT",
            "notNull": false
          },
          {
            "fieldPath": "horarioApertura",
            "columnName": "horario_apertura",
            "affinity": "TEXT",
            "notNull": false
          },
          {
            "fieldPath": "horarioCierre",
            "columnName": "horario_cierre",
            "affinity": "TEXT",
            "notNull": false
          },
          {
            "fieldPath": "latitud",
            "columnName": "latitud",
            "affinity": "REAL",
            "notNull": true
          },
          {
            "fieldPath": "longitud",
            "columnName": "longitud",
            "affinity": "REAL",
            "notNull": true
          },
          {
            "fieldPath": "favorito",
            "columnName": "favorito",
            "affinity": "INTEGER",
            "notNull": false
          }
        ],
        "primaryKey": {
          "columnNames": [
            "id"
          ],
          "autoGenerate": false
        },
        "indices": [
          {
            "name": "index_sitio_table_id",
            "unique": false,
            "columnNames": [
              "id"
            ],
            "createSql": "CREATE INDEX IF NOT EXISTS `index_sitio_table_id` ON `${TABLE_NAME}` (`id`)"
          }
        ],
        "foreignKeys": []
      },
      {
        "tableName": "categoria_table",
        "createSql": "CREATE TABLE IF NOT EXISTS `${TABLE_NAME}` (`id` INTEGER NOT NULL, `nombre` TEXT, PRIMARY KEY(`id`))",
        "fields": [
          {
            "fieldPath": "id",
            "columnName": "id",
            "affinity": "INTEGER",
            "notNull": true
          },
          {
            "fieldPath": "nombre",
            "columnName": "nombre",
            "affinity": "TEXT",
            "notNull": false
          }
        ],
        "primaryKey": {
          "columnNames": [
            "id"
          ],
          "autoGenerate": false
        },
        "indices": [],
        "foreignKeys": []
      },
      {
        "tableName": "linea_table",
        "createSql": "CREATE TABLE IF NOT EXISTS `${TABLE_NAME}` (`id` INTEGER NOT NULL, `numero` INTEGER NOT NULL, `nombre` TEXT, `location` TEXT, PRIMARY KEY(`id`))",
        "fields": [
          {
            "fieldPath": "id",
            "columnName": "id",
            "affinity": "INTEGER",
            "notNull": true
          },
          {
            "fieldPath": "numero",
            "columnName": "numero",
            "affinity": "INTEGER",
            "notNull": true
          },
          {
            "fieldPath": "nombre",
            "columnName": "nombre",
            "affinity": "TEXT",
            "notNull": false
          },
          {
            "fieldPath": "location",
            "columnName": "location",
            "affinity": "TEXT",
            "notNull": false
          }
        ],
        "primaryKey": {
          "columnNames": [
            "id"
          ],
          "autoGenerate": false
        },
        "indices": [],
        "foreignKeys": []
      }
    ],
    "views": [],
    "setupQueries": [
      "CREATE TABLE IF NOT EXISTS room_master_table (id INTEGER PRIMARY KEY,identity_hash TEXT)",
      "INSERT OR REPLACE INTO room_master_table (id,identity_hash) VALUES(42, '85890e95d5597804e2939124eaa1c94b')"
    ]
  }
}